{
  "default": {
    "pagetitle": "ページタイトル",
    "sitename": "配下ページタイトルの末尾に着けるサイト名（｜株式会社○○など）",
    "description": "ディスクリプション",
    "directoryname": [
      "/"
    ],
    "breadcrumblist": [
      ""
    ]
  },
  "home": {
    "pagetitle": "",
    "sitename": "泡ブロック",
    "description": "トイレ使用中や流すときの水跳ねや空気中に飛散するエアロゾルを抑制。災害時などの水が使えないときにはニオイの発生源からも10時間以上持続する泡でニオイをガード",
    "directoryname": [
      "/"
    ],
    "breadcrumblist": [
      "HOME"
    ]
  },
  "company": {
    "pagetitle": "会社概要",
    "sitename": "泡ブロック | 会社概要",
    "description": "トイレ使用中や流すときの水跳ねや空気中に飛散するエアロゾルを抑制。災害時などの水が使えないときにはニオイの発生源からも10時間以上持続する泡でニオイをガード",
    "directoryname": [
      "/",
      "/company/"
    ],
    "breadcrumblist": [
      "HOME",
      "会社概要"
    ]
  }
}
